<svg width="154" height="143" viewBox="0 0 154 143" fill="none" xmlns="http://www.w3.org/2000/svg">
    <path
        d="M106.331 34.2366C106.359 34.0514 106.373 33.8805 106.402 33.6812C106.402 33.6812 107.911 33.9375 109.719 34.5072C108.637 34.0942 107.47 33.7239 106.203 33.3963C106.16 33.7096 106.217 33.9945 106.331 34.2366Z"
        fill="#AE1F23" />
    <path
        d="M118.248 51.5828L118.974 50.6428C118.903 50.5146 118.818 50.4007 118.746 50.2725V50.2583L118.348 49.062C118.348 49.062 118.348 49.062 118.348 49.0478C118.362 50.0162 118.333 50.8422 118.248 51.5828Z"
        fill="#AE1F23" />
    <path
        d="M115.529 37.5121C115.343 37.384 115.144 37.2558 114.945 37.1276C115.073 37.2558 115.201 37.3697 115.301 37.4979C115.372 37.4979 115.457 37.4979 115.529 37.5121Z"
        fill="#AE1F23" />
    <path
        d="M102.202 53.7332H99.3112V50.9134H97.1897V58.4187H99.3112V55.4992H102.202V58.4187H104.323V50.9134H102.202V53.7332Z"
        fill="#AE1F23" />
    <path
        d="M80.2322 63.1469C81.2858 63.9017 82.4107 64.5568 83.507 65.2546C83.7063 65.3828 83.9341 65.4682 84.0765 65.5395C84.6888 66.223 86.0841 67.7042 87.3228 68.6014C87.5364 66.9921 87.9208 65.6961 88.0917 64.4001C88.2198 63.3605 88.2056 62.3066 87.9066 61.1673C87.8639 61.0249 87.8354 60.8967 87.7784 60.7543C87.7642 60.7116 87.75 60.6689 87.7357 60.6119C87.6645 60.4125 87.5933 60.2131 87.5079 60.0137C86.4401 57.5215 82.2825 56.5246 82.2683 50.5574C82.2683 50.2868 81.955 50.1017 81.8696 49.9735C79.5203 54.6162 77.8829 56.5103 73.4976 56.3394C73.7681 56.8379 74.0671 57.3363 74.3661 57.8063C75.8611 60.0992 78.0822 61.5946 80.2322 63.1469Z"
        fill="#AE1F23" />
    <path
        d="M109.278 54.0181C109.093 51.5258 107.826 49.3326 105.961 47.8942C103.383 46.0571 99.8096 45.7153 96.9335 47.0397C94.8405 48.0936 93.2316 49.9877 92.5624 52.2664C92.5197 52.423 92.477 52.5939 92.4343 52.7506C92.4343 52.7648 92.4343 52.7791 92.42 52.7933C92.3488 53.1209 92.2919 53.4484 92.2492 53.7902C92.2065 54.3171 92.2065 54.8156 92.2349 55.2998C92.42 57.7921 93.6872 59.9995 95.5524 61.4379C98.1295 63.275 101.703 63.6168 104.579 62.2924C106.672 61.2385 108.281 59.3444 108.951 57.0658C108.993 56.9091 109.036 56.7524 109.064 56.5815C109.064 56.5673 109.064 56.5531 109.079 56.5388C109.15 56.2255 109.207 55.8979 109.25 55.5561V55.5419C109.306 55.015 109.306 54.5165 109.278 54.0181ZM99.9663 62.4063C96.3355 62.036 93.3882 59.1023 93.0323 55.4707C92.5482 50.5574 96.6488 46.4558 101.561 46.94C105.192 47.3103 108.139 50.2441 108.495 53.8757C108.979 58.789 104.864 62.8905 99.9663 62.4063Z"
        fill="#AE1F23" />
    <path opacity="0.57"
        d="M3.60222 85.3209C-0.768894 90.4194 -0.299034 88.041 0.59797 95.4181C0.242016 91.4875 2.76217 86.7735 3.60222 85.3209Z"
        fill="#771213" />
    <path
        d="M95.5525 31.9437C96.1932 32.0291 96.9621 32.0861 97.7736 32.1431C97.7736 32.1146 97.7594 32.1004 97.7594 32.0719C97.0333 32.0149 96.3071 31.9722 95.5525 31.9437Z"
        fill="#AE1F23" />
    <path
        d="M77.2421 65.0552C76.9288 64.0868 76.6298 63.1041 76.1742 62.1927C76.5729 63.1754 76.9003 64.1438 77.2421 65.0552Z"
        fill="#AE1F23" />
    <path
        d="M86.8529 78.4422C82.9943 79.0119 80.4599 74.7252 78.0537 73.2014C72.814 69.997 67.3608 66.4936 64.8122 60.6261C62.7477 57.0515 67.6883 53.5054 69.4111 50.6713C71.5326 47.2391 75.4623 45.7152 77.1425 42.0552C77.8971 40.4316 79.4775 38.9078 81.1149 38.0533C82.2255 37.9963 83.3503 37.9109 84.4751 37.8824C84.5605 37.797 84.6317 37.7115 84.7172 37.6261C84.7314 37.6261 84.7314 37.6261 84.7456 37.6118L85.9701 36.8855C85.9844 36.8855 85.9844 36.8713 85.9844 36.8713C86.2264 36.857 86.4542 36.8428 86.6963 36.8285C89.373 34.6496 94.9117 33.6954 94.9117 33.6954C94.9117 33.7524 94.9259 33.8093 94.9259 33.8663C94.9829 33.8521 95.0256 33.8378 95.0826 33.8236C95.2107 33.6384 95.3673 33.4675 95.3816 33.2112C95.3816 33.2112 95.8657 32.4706 95.6663 32.0861C95.6663 32.1146 95.6094 32.0576 95.5382 31.9579C95.5239 31.9437 95.5239 31.9295 95.5097 31.9152C94.7693 31.9152 94.0147 31.9295 93.2316 31.9579C93.2316 31.9579 78.0679 39.1072 71.2051 38.4806C64.3423 37.8539 66.3214 49.0905 57.5223 53.4626C49.0505 57.6781 44.3662 67.1914 13.4694 75.9357C11.1628 76.5908 9.14096 78.0008 7.74562 79.9518C6.0228 82.3729 4.65594 84.0819 3.57384 85.3351C2.76226 86.7735 0.242105 91.4875 0.598059 95.4181C0.612297 95.5748 0.640773 95.7457 0.655012 95.9166C0.655012 95.9166 14.4233 85.8478 22.8096 87.6707C22.8096 87.6707 31.324 80.4361 37.4322 78.5277C37.4322 78.5277 24.9596 85.506 24.4897 88.2404C24.4897 88.2404 24.091 87.9841 23.1086 87.742C23.9344 87.9556 24.7033 88.2831 25.4009 88.7531C33.118 94.0367 31.8793 104.034 43.1132 105.287C54.3471 106.541 66.6916 98.4516 71.6892 101.57C74.4087 103.265 79.7053 98.7079 83.9483 94.1934C84.3185 91.5872 84.7172 88.9667 85.1301 86.3605C85.6569 83.7116 86.6678 81.5327 86.8529 78.4422Z"
        fill="#AE1F23" />
    <path
        d="M79.0787 68.4874C79.5486 69.0713 80.1324 69.6125 80.83 70.054C80.4598 69.7264 79.9473 69.228 79.392 68.7723C79.2923 68.6868 79.1926 68.5871 79.0787 68.4874Z"
        fill="#AE1F23" />
    <path
        d="M87.3228 68.6439C87.3228 68.6297 87.3228 68.6013 87.3369 68.5871C87.3228 68.6155 87.3228 68.6297 87.3228 68.6439Z"
        fill="#AE1F23" />
    <path
        d="M71.7888 56.6242C72.2302 57.0372 72.6574 57.4645 73.0703 57.906C74.309 59.2304 75.3911 60.6546 76.1742 62.1927C76.6298 63.1041 76.9288 64.0868 77.2421 65.0552C77.7262 66.3227 78.2672 67.4905 79.0788 68.4874C79.1785 68.5871 79.2924 68.6868 79.4063 68.7865C79.9615 69.2422 80.4741 69.7264 80.8443 70.0682C81.0152 70.1822 81.2003 70.2818 81.3854 70.3815C81.3854 70.3815 83.8913 71.4354 87.1945 71.5778C87.1233 70.524 87.1945 69.5698 87.3227 68.6583C87.3227 68.6441 87.3227 68.6156 87.3369 68.6014C86.084 67.7041 84.7029 66.223 84.0906 65.5394C83.9482 65.4682 83.7204 65.3828 83.5211 65.2546C82.4248 64.5568 81.2999 63.9017 80.2463 63.1469C78.0964 61.5945 75.8752 60.0992 74.3944 57.8205C74.0812 57.3363 73.7964 56.8521 73.5259 56.3536C72.9706 56.3252 72.3726 56.2824 71.7177 56.197C71.7461 56.4391 71.7319 56.5673 71.7888 56.6242Z"
        fill="#AE1F23" />
    <path
        d="M71.7888 56.6242C72.2302 57.0372 72.6574 57.4645 73.0703 57.906C74.309 59.2304 75.3911 60.6546 76.1742 62.1927C76.6298 63.1041 76.9288 64.0868 77.2421 65.0552C77.7262 66.3227 78.2672 67.4905 79.0788 68.4874C79.1785 68.5871 79.2924 68.6868 79.4063 68.7865C79.9615 69.2422 80.4741 69.7264 80.8443 70.0682C81.0152 70.1822 81.2003 70.2818 81.3854 70.3815C81.3854 70.3815 83.8913 71.4354 87.1945 71.5778C87.1233 70.524 87.1945 69.5698 87.3227 68.6583C87.3227 68.6441 87.3227 68.6156 87.3369 68.6014C86.084 67.7041 84.7029 66.223 84.0906 65.5394C83.9482 65.4682 83.7204 65.3828 83.5211 65.2546C82.4248 64.5568 81.2999 63.9017 80.2463 63.1469C78.0964 61.5945 75.8752 60.0992 74.3944 57.8205C74.0812 57.3363 73.7964 56.8521 73.5259 56.3536C72.9706 56.3252 72.3726 56.2824 71.7177 56.197C71.7461 56.4391 71.7319 56.5673 71.7888 56.6242Z"
        fill="#AE1F23" />
    <path opacity="0.47"
        d="M22.8239 87.6707C22.9378 87.6992 23.0232 87.7135 23.1229 87.742C23.0232 87.7135 22.9235 87.685 22.8239 87.6707Z"
        fill="#771213" />
    <path
        d="M37.4465 78.5135C31.3383 80.4361 22.8239 87.6565 22.8239 87.6565C22.9235 87.685 23.0232 87.6992 23.1229 87.7277C24.1053 87.9698 24.504 88.2262 24.504 88.2262C24.9738 85.4918 37.4465 78.5135 37.4465 78.5135Z"
        fill="#AE1F23" />
    <path opacity="0.47"
        d="M37.4465 78.5135C31.3383 80.4361 22.8239 87.6565 22.8239 87.6565C22.9235 87.685 23.0232 87.6992 23.1229 87.7277C24.1053 87.9698 24.504 88.2262 24.504 88.2262C24.9738 85.4918 37.4465 78.5135 37.4465 78.5135Z"
        fill="#771213" />
    <path
        d="M97.7308 32.0434C97.7308 32.0576 97.7309 32.0576 97.7451 32.0719C98.4997 32.1288 99.2543 32.1858 99.9662 32.2713C101.931 32.3994 103.896 32.5988 105.12 33.14C105.491 33.2254 105.847 33.3109 106.203 33.4106C106.231 33.2254 106.288 33.0403 106.402 32.8267C106.402 32.8267 106.16 32.4422 106.288 32.2285C106.43 32.1431 106.516 32.0007 106.502 31.8298C106.914 30.9895 107.256 30.0353 107.512 29.0242C107.598 29.0527 107.698 29.0812 107.783 29.0812C108.623 29.0812 109.306 27.6143 109.306 25.8056C109.306 24.0397 108.652 22.6013 107.826 22.5443C107.726 21.8465 107.598 21.1629 107.413 20.522C107.456 20.3796 107.512 20.2372 107.555 20.0948C107.641 20.0093 107.698 19.9096 107.698 19.7814C107.698 19.5963 107.584 19.4397 107.413 19.3827C107.413 19.1975 107.413 19.0266 107.413 18.8415C107.399 18.044 107.655 17.0186 107.256 16.5059C106.231 15.1814 104.921 14.0706 103.697 12.8886C103.554 12.7461 103.255 12.7319 103.027 12.6892C100.593 12.3616 98.2719 12.8743 96.1647 14.0564C94.6127 14.9393 93.7726 16.392 93.6872 18.3003C93.6303 19.7957 93.4025 21.291 93.2316 22.7864C92.6763 23.2849 92.2919 24.4384 92.2919 25.8056C92.2919 27.6143 92.9753 29.0812 93.8154 29.0812C94.0432 29.0812 94.271 28.9672 94.4561 28.7678C94.5842 29.3375 94.7408 29.8787 94.9259 30.3914C94.9402 30.605 94.9686 30.8186 94.9829 31.0322C94.9829 31.0322 95.2961 31.6019 95.4955 31.901C96.2216 31.901 96.9193 31.9152 97.6027 31.9437C97.6881 32.0149 97.7308 32.0719 97.7308 32.0434Z"
        fill="#333333" />
    <path
        d="M97.7449 32.0577C97.7449 32.0434 97.7449 32.0434 97.7307 32.0292C97.7307 32.0577 97.688 32.0007 97.6168 31.9153C96.9333 31.8868 96.2357 31.8725 95.5095 31.8725C95.5238 31.8868 95.5238 31.901 95.538 31.9153C96.3069 31.9722 97.033 32.0149 97.7449 32.0577Z"
        fill="#333333" />
    <path
        d="M122.448 73.1017C127.901 68.7295 137.583 65.7246 136.814 57.2224C136.088 55.7128 135.077 54.3883 133.582 53.4626C129.482 50.4719 130.678 47.8942 125.082 44.6329C123.544 39.7481 120.255 37.9252 115.301 37.4979C115.543 37.7827 115.742 38.096 115.87 38.4094C116.041 38.8366 116.012 39.2496 115.842 39.6484C115.842 39.6626 115.827 39.6769 115.827 39.6911C115.799 39.7481 115.77 39.805 115.742 39.862C115.087 41.1153 112.994 42.0409 110.517 42.4112C108.424 42.753 106.046 42.6818 104.01 42.0125C103.981 41.9982 103.938 41.9982 103.91 41.984C103.853 41.9697 103.796 41.9413 103.739 41.927C103.412 41.8131 103.113 41.6849 102.814 41.5425C102.515 41.4428 102.33 41.2719 102.33 41.2719C102.714 41.4713 103.07 41.5995 103.426 41.571C103.953 41.457 104.593 40.9444 105.177 39.4775C105.59 38.3382 105.975 36.6719 106.331 34.2508C106.16 33.7809 105.733 33.4106 105.12 33.14C103.54 32.7697 101.831 32.4849 99.966 32.2713C99.2257 32.2285 98.471 32.1858 97.7734 32.1431C97.8303 32.4707 97.5171 32.9549 97.5171 32.9549L97.4316 33.2255C97.4032 33.3251 97.332 33.3963 97.2466 33.4391C97.2181 33.496 97.1896 33.553 97.1611 33.61C97.1469 33.5245 97.1326 33.4391 97.1326 33.3394C97.1326 33.3394 96.2641 33.496 95.1108 33.8094C95.0681 33.8806 95.0112 33.9375 94.9827 34.023C95.3386 36.5152 95.7231 38.2385 96.136 39.392C96.7197 40.9159 97.3747 41.4286 97.9015 41.5567C98.2575 41.5852 98.6134 41.4713 98.9978 41.2577C98.9978 41.2577 98.8128 41.4286 98.5138 41.514C98.0581 41.7419 97.5598 41.927 97.0472 42.0837C96.9903 42.0979 96.9333 42.1264 96.8764 42.1406C96.8621 42.1406 96.8479 42.1549 96.8336 42.1549C94.883 42.6961 92.6903 42.7245 90.7397 42.397C90.7112 42.397 90.697 42.3827 90.6685 42.3827C90.5973 42.3685 90.5261 42.3543 90.4407 42.34C88.1341 41.927 86.1977 41.0156 85.5855 39.8335C85.3292 39.3778 85.2722 38.8936 85.4716 38.3951C85.5428 38.21 85.6424 38.0391 85.7421 37.8682C85.3292 37.8539 84.9163 37.8682 84.5034 37.8682C83.8484 38.566 83.1508 39.2496 82.7948 40.0899C82.1541 41.6279 81.0862 42.5821 79.7906 43.5505C78.5376 44.4905 77.5694 45.8292 76.5442 47.054C75.5618 48.236 74.6791 49.5035 73.7393 50.714C72.9989 51.6682 72.3155 52.6509 72.3867 53.9326C72.4152 54.3314 72.6288 54.7301 72.8281 55.1004C73.0559 55.5134 73.2837 55.9407 73.5115 56.3537C77.8969 56.5246 79.5343 54.6304 81.8836 49.9877C81.969 50.1016 82.2822 50.301 82.2822 50.5716C82.2822 56.5388 86.454 57.5215 87.5219 60.028C87.6073 60.2274 87.6785 60.4267 87.7497 60.6261C87.7639 60.6688 87.7782 60.7116 87.7924 60.7685C87.8351 60.911 87.8778 61.0534 87.9205 61.1815C88.248 62.3636 88.248 63.389 88.1056 64.4144C87.949 65.7816 87.5646 67.1345 87.3368 68.6156C87.4222 68.6726 87.4934 68.7438 87.5788 68.7865C88.4616 69.3847 89.6576 69.5128 90.6116 69.4986C90.4834 70.823 90.2841 72.0763 89.9851 72.9308C89.7003 74.0131 89.3728 74.9388 89.2162 75.8788C88.7036 79.0546 88.248 82.2447 87.8066 85.4348C87.1374 90.2912 90.3553 86.6026 90.341 86.6739C90.341 86.6739 87.5076 90.4194 83.9481 94.1934C83.7488 95.5321 83.5637 96.8708 83.3786 98.2095C83.0938 99.8757 82.9657 101.585 82.9514 103.294C87.4222 104.789 92.1635 105.672 97.0899 105.871C97.8873 101.927 98.5565 97.9531 99.0406 93.994C99.8948 93.9513 100.749 93.9228 101.589 93.9085C102.045 97.825 102.842 101.784 103.725 105.715C108.48 105.288 113.051 104.205 117.337 102.553C117.123 94.2788 116.084 86.0899 113.578 77.5308C117.337 78.1859 120.127 75.9358 122.448 73.1017ZM109.249 55.5419C109.249 55.5561 109.249 55.5561 109.249 55.5419C109.207 55.8837 109.15 56.2113 109.078 56.5388C109.078 56.5531 109.078 56.5673 109.064 56.5815C109.022 56.7382 108.993 56.9091 108.95 57.0657C108.238 59.6577 106.587 61.3809 104.579 62.2924C103.668 62.7481 102.671 63.0614 101.618 63.1611C99.3253 63.389 97.2038 62.7054 95.5522 61.4379C93.7155 60.1277 92.4056 58.0627 92.2347 55.2998C92.192 54.8013 92.2062 54.3029 92.249 53.7902C92.2774 53.4484 92.3486 53.1208 92.4198 52.7933C92.4198 52.779 92.4198 52.7648 92.434 52.7506C92.4768 52.5939 92.5052 52.423 92.5622 52.2664C93.2883 49.6744 94.9257 47.9512 96.9333 47.0397C97.8446 46.584 98.8412 46.2707 99.8949 46.171C102.187 45.9431 104.309 46.6267 105.96 47.8942C107.797 49.2044 109.107 51.2694 109.278 54.0181C109.306 54.5165 109.306 55.0292 109.249 55.5419ZM112.168 70.6237C112.083 69.4986 112.14 68.3593 112.239 67.2342C112.296 65.81 112.41 64.3716 112.624 62.9617C112.723 61.8509 112.894 60.6973 113.222 60.028C113.592 59.2874 114.048 58.8602 114.589 58.3617C115.258 57.6354 115.927 56.9945 116.511 56.2255C116.824 55.7698 117.166 55.2143 117.507 54.545C117.792 53.8899 118.02 53.1351 118.177 52.2236C118.191 52.0527 118.205 51.8676 118.205 51.6825C118.276 50.4007 118.305 48.9481 118.348 49.0905V49.1047C118.661 50.0732 119.173 50.9989 119.8 51.8676C120.668 52.9927 121.693 54.0038 122.804 54.8156C123.06 55.0007 123.345 55.2571 123.644 55.5277C124.228 55.9264 124.826 56.2682 125.41 56.5673C126.292 56.6385 128.67 56.3964 129.88 56.3109C129.98 56.2967 130.08 56.2967 130.165 56.2967C130.464 56.2825 130.635 56.2825 130.592 56.3252L129.795 57.0515C128.813 58.0199 127.958 59.1023 127.175 60.2416C127.004 60.5264 126.848 60.8113 126.677 61.0819C125.652 62.862 124.555 64.5853 123.288 66.1946C122.448 67.3766 121.523 68.4874 120.441 69.4559L120.241 69.5271C120.213 69.5413 120.198 69.5413 120.198 69.5413C120.198 69.5413 119.6 69.7549 118.604 70.0255C117.507 70.3246 115.927 70.6521 114.147 70.6949C113.507 70.7091 112.852 70.6949 112.168 70.6237Z"
        fill="#333333" />
    <path
        d="M118.205 51.654C118.191 51.8391 118.191 52.0243 118.177 52.1952C118.205 51.9958 118.234 51.7964 118.262 51.5828L118.205 51.654Z"
        fill="#333333" />
    <path d="M129.809 56.9945L130.607 56.2682C130.322 56.5103 130.066 56.7524 129.809 56.9945Z"
        fill="#333333" />
    <path
        d="M123.658 55.485C123.359 55.2286 123.06 54.958 122.818 54.7729C121.708 53.9611 120.683 52.9357 119.814 51.8249C120.839 53.249 122.22 54.5165 123.658 55.485Z"
        fill="#333333" />
    <path
        d="M129.895 56.2682C128.699 56.3537 126.307 56.5958 125.424 56.5246C126.307 56.5958 128.684 56.3537 129.895 56.2682Z"
        fill="#333333" />
    <path
        d="M113.222 60.0137C113.663 59.3871 114.119 58.8459 114.589 58.3475C114.048 58.8459 113.592 59.2732 113.222 60.0137Z"
        fill="#333333" />
    <path
        d="M112.168 70.6237C112.183 69.5271 112.197 68.3878 112.239 67.2342C112.14 68.3593 112.083 69.4986 112.168 70.6237Z"
        fill="#333333" />
    <path
        d="M126.691 61.0391C126.848 60.7543 127.019 60.4694 127.19 60.1989C125.851 62.1357 124.684 64.2434 123.317 66.166C124.556 64.5425 125.666 62.8193 126.691 61.0391Z"
        fill="#333333" />
    <path
        d="M116.511 56.2113C116.881 55.7128 117.223 55.1716 117.508 54.5308C117.152 55.2001 116.824 55.7555 116.511 56.2113Z"
        fill="#333333" />
    <path d="M120.256 69.4849L120.457 69.4131C120.457 69.4131 120.327 69.4706 120.256 69.4849Z"
        fill="#333333" />
    <path
        d="M112.624 62.9475C112.766 61.9506 112.966 60.9679 113.222 60.0137C112.894 60.6831 112.724 61.8366 112.624 62.9475Z"
        fill="#333333" />
    <path
        d="M114.147 70.6949C113.507 70.7091 112.852 70.6949 112.168 70.6237L112.182 70.6379C112.852 70.6949 113.507 70.7091 114.147 70.6949Z"
        fill="#333333" />
    <path
        d="M120.213 69.4986C120.213 69.4986 119.601 69.7549 118.59 70.0255C119.601 69.7549 120.213 69.4986 120.213 69.4986Z"
        fill="#333333" />
    <path
        d="M118.348 49.062C118.305 48.9196 118.277 50.3723 118.205 51.654L118.262 51.5828C118.333 50.8422 118.362 50.0162 118.348 49.062Z"
        fill="#333333" />
    <path
        d="M87.7356 60.6119C87.75 60.655 87.7643 60.698 87.7787 60.7555C87.7787 60.698 87.75 60.655 87.7356 60.6119Z"
        fill="#333333" />
    <path
        d="M88.1058 64.4001C88.2481 63.3747 88.2481 62.3493 87.9207 61.1673C88.2197 62.3066 88.2197 63.3605 88.1058 64.4001Z"
        fill="#333333" />
    <path
        d="M92.2632 53.7902C92.2062 54.3029 92.2062 54.8156 92.2489 55.2998C92.2062 54.8298 92.2205 54.3171 92.2632 53.7902Z"
        fill="#333333" />
    <path
        d="M105.96 47.8942C104.309 46.6267 102.173 45.9431 99.8949 46.171C98.8413 46.2707 97.8446 46.584 96.9333 47.0397C99.7952 45.7295 103.383 46.0713 105.96 47.8942Z"
        fill="#333333" />
    <path
        d="M92.4342 52.7506C92.4769 52.5797 92.5054 52.423 92.5624 52.2664C92.5196 52.4373 92.4769 52.5939 92.4342 52.7506Z"
        fill="#333333" />
    <path
        d="M109.25 55.5419C109.306 55.0292 109.306 54.5165 109.264 54.018C109.306 54.5165 109.306 55.0149 109.25 55.5419Z"
        fill="#333333" />
    <path
        d="M109.249 55.5562C109.207 55.8979 109.15 56.2255 109.078 56.5388C109.164 56.2255 109.221 55.8979 109.249 55.5562Z"
        fill="#333333" />
    <path
        d="M95.5667 61.4521C97.2183 62.7196 99.354 63.4032 101.632 63.1754C102.686 63.0757 103.682 62.7624 104.594 62.3066C101.718 63.6169 98.1295 63.2751 95.5667 61.4521Z"
        fill="#333333" />
    <path
        d="M92.2633 53.7902C92.306 53.4484 92.363 53.1066 92.4342 52.7933C92.3487 53.1209 92.2918 53.4627 92.2633 53.7902Z"
        fill="#333333" />
    <path
        d="M109.079 56.5815C109.036 56.7524 109.007 56.9091 108.965 57.0657C109.007 56.9091 109.036 56.7524 109.079 56.5815Z"
        fill="#333333" />
    <path
        d="M87.8069 85.4348C88.2482 82.2447 88.7181 79.0546 89.2164 75.8788C89.3731 74.9388 89.7005 74.0131 89.9853 72.9308C90.2843 72.0763 90.4836 70.823 90.6118 69.4986C89.6578 69.5128 88.4618 69.3704 87.5791 68.7865C87.4936 68.7295 87.4224 68.6726 87.337 68.6156C87.337 68.6299 87.337 68.6583 87.3228 68.6726C87.2801 69.0144 87.2373 69.3704 87.2231 69.7549C87.2089 70.0825 87.1946 70.3388 87.1946 70.5525C87.1946 70.5525 87.1946 70.937 87.1946 71.5921C83.8914 71.4497 81.3855 70.3958 81.3855 70.3958L80.8586 70.2107L80.9014 70.1395C80.8871 70.1252 80.8586 70.0967 80.8444 70.0825C80.1325 69.6268 79.563 69.0998 79.0931 68.5159C78.1392 67.576 77.6693 66.3512 77.2564 65.0837C76.9004 64.1723 76.573 63.2038 76.1885 62.2212C75.4054 60.6831 74.3091 59.2589 73.0846 57.9345C72.6717 57.493 72.2446 57.0657 71.8032 56.6527C71.7462 56.5958 71.7605 56.4676 71.7035 56.2255C72.3585 56.3109 72.9565 56.3679 73.5118 56.3821C73.2839 55.9691 73.0561 55.5419 72.8283 55.1289C72.629 54.7586 72.4154 54.3599 72.3869 53.9611C72.3015 52.6794 72.9849 51.6967 73.7396 50.7425C74.6793 49.532 75.562 48.2645 76.5445 47.0824C77.5696 45.8577 78.5378 44.519 79.7908 43.579C81.0865 42.6106 82.1401 41.6707 82.795 40.1183C83.1368 39.2923 83.8487 38.5945 84.5036 37.8967C83.393 37.9252 82.2682 38.0106 81.1434 38.0676C79.506 38.9221 77.9256 40.4459 77.171 42.0694C75.4909 45.7295 71.5469 47.2533 69.4396 50.6855C67.7168 53.5338 62.7762 57.0657 64.8407 60.6404C67.3893 66.5079 72.8426 69.997 78.0822 73.2156C80.4885 74.7395 83.0228 79.0262 86.8814 78.4565C86.6821 81.5469 85.6711 83.7258 85.1586 86.3605C84.7457 88.9667 84.3612 91.5729 83.9768 94.1934C87.5363 90.4194 90.3697 86.6881 90.3697 86.6738C90.3413 86.5884 87.1377 90.277 87.8069 85.4348Z"
        fill="#333333" />
    <path
        d="M95.6806 32.0719C95.8799 32.4564 95.3958 33.1969 95.3958 33.1969C95.3673 33.4533 95.2249 33.6242 95.0968 33.8093C96.2501 33.496 97.1186 33.3394 97.1186 33.3394C97.1329 33.4391 97.1471 33.5245 97.1471 33.61C97.1756 33.553 97.204 33.496 97.2325 33.4391C97.318 33.3963 97.3891 33.3251 97.4176 33.2254L97.5031 32.9548C97.5031 32.9548 97.8163 32.4706 97.7593 32.1431C96.9478 32.0861 96.1931 32.0291 95.5382 31.9437C95.6236 32.0434 95.6806 32.1004 95.6806 32.0719Z"
        fill="#333333" />
    <path
        d="M73.0703 57.906C74.309 59.2305 75.3911 60.6546 76.1742 62.1927C75.3911 60.6546 74.309 59.2305 73.0703 57.906Z"
        fill="#333333" />
    <path
        d="M87.1945 71.5636C87.1945 70.9227 87.1945 70.524 87.1945 70.524C87.1945 70.3104 87.2087 70.054 87.2229 69.7265C87.2514 69.3419 87.2799 68.9859 87.3226 68.6441C87.1945 69.5556 87.1233 70.5097 87.1945 71.5636Z"
        fill="#333333" />
    <path
        d="M79.0788 68.4874C78.2672 67.4905 77.7262 66.3227 77.2421 65.0552C77.6692 66.3227 78.1248 67.5475 79.0788 68.4874Z"
        fill="#333333" />
    <path
        d="M80.9013 70.111L80.8586 70.1822L81.3854 70.3673C81.2003 70.2676 81.0152 70.1537 80.8444 70.054C80.8586 70.0683 80.8871 70.0967 80.9013 70.111Z"
        fill="#333333" />
    <path
        d="M105.12 33.14C103.896 32.5846 101.931 32.3994 99.9662 32.2713C101.831 32.4849 103.554 32.7697 105.12 33.14Z"
        fill="#333333" />
    <path
        d="M108.495 53.8757C108.125 50.2441 105.192 47.2961 101.561 46.94C96.6487 46.4558 92.5481 50.5574 93.0322 55.4707C93.4024 59.1023 96.3355 62.0503 99.9662 62.4063C104.864 62.8905 108.979 58.789 108.495 53.8757ZM104.323 58.4187H102.202V55.4849H99.3112V58.4187H97.1898V50.9134H99.3112V53.7332H102.202V50.9134H104.323V58.4187Z"
        fill="#333333" />
    <path
        d="M109.719 34.5072C111.77 35.2762 113.492 36.1734 114.945 37.1134C113.678 35.9313 111.542 35.0768 109.719 34.5072Z"
        fill="#AE1F23" />
    <path
        d="M106.331 34.2366C106.53 34.6781 106.9 35.0484 107.185 35.4471C107.655 36.1165 108.139 36.7858 108.68 37.5549C108.851 37.854 109.007 38.1103 109.15 38.3239C109.264 38.2812 109.392 38.2527 109.506 38.21C109.605 38.1815 109.677 38.1103 109.734 38.0391C110.004 37.9821 110.289 37.9394 110.559 37.8824C112.168 37.5549 113.749 37.4125 115.301 37.4979C115.187 37.3697 115.073 37.2416 114.945 37.1276C113.492 36.1877 111.77 35.2905 109.719 34.5214C107.897 33.966 106.402 33.6954 106.402 33.6954C106.373 33.8806 106.345 34.0657 106.331 34.2366Z"
        fill="#AE1F23" />
    <path
        d="M102.33 41.2719C102.486 41.3716 102.643 41.457 102.814 41.5425C102.828 41.5425 102.828 41.5567 102.842 41.5567C102.671 41.457 102.501 41.3716 102.33 41.2719Z"
        fill="#AE1F23" />
    <path
        d="M102.814 41.5283C102.643 41.4428 102.486 41.3574 102.33 41.2577C102.33 41.2719 102.515 41.4428 102.814 41.5283Z"
        fill="#AE1F23" />
    <path
        d="M110.559 37.8824C110.289 37.9394 110.004 37.9963 109.733 38.0391C109.677 38.1245 109.605 38.1815 109.506 38.21C109.392 38.2384 109.264 38.2812 109.15 38.3239C109.007 38.1103 108.865 37.8539 108.68 37.5548C108.139 36.7858 107.655 36.1164 107.185 35.4471C106.9 35.0483 106.53 34.6781 106.331 34.2366C106.017 36.6861 105.619 38.3524 105.177 39.4632C104.636 40.9586 104.052 41.514 103.426 41.5567C103.212 41.5994 103.013 41.5852 102.856 41.5425C103.141 41.6849 103.44 41.8131 103.753 41.9127C103.81 41.927 103.867 41.9555 103.924 41.9697C103.953 41.984 103.995 41.9982 104.024 41.9982C106.003 42.6391 108.409 42.7245 110.531 42.397C112.994 41.9982 115.073 41.044 115.756 39.8477C115.785 39.7908 115.813 39.7338 115.842 39.6768C115.842 39.6626 115.856 39.6483 115.856 39.6341C116.098 38.9932 115.97 38.2669 115.315 37.4836C113.763 37.4124 112.168 37.5548 110.559 37.8824Z"
        fill="#AE1F23" />
    <path
        d="M115.828 39.6911C115.799 39.7485 115.771 39.806 115.742 39.8634C115.771 39.806 115.799 39.7485 115.828 39.6911Z"
        fill="#AE1F23" />
    <path
        d="M103.912 41.9844C103.854 41.9701 103.797 41.9414 103.739 41.927C103.797 41.9414 103.854 41.9701 103.912 41.9844Z"
        fill="#AE1F23" />
    <path
        d="M105.163 39.4632C104.579 40.9443 103.939 41.457 103.412 41.5567C104.053 41.514 104.636 40.9586 105.163 39.4632Z"
        fill="#AE1F23" />
    <path
        d="M115.842 39.6484C116.013 39.2496 116.027 38.8366 115.87 38.4094C115.742 38.0818 115.557 37.7827 115.301 37.4979C115.956 38.2669 116.084 38.9933 115.842 39.6484Z"
        fill="#AE1F23" />
    <path
        d="M104.01 42.0125C106.046 42.6818 108.424 42.753 110.517 42.4112C108.395 42.7388 105.989 42.6534 104.01 42.0125Z"
        fill="#AE1F23" />
    <path
        d="M89.7005 36.7289C88.7038 36.7004 87.7071 36.7716 86.7105 36.8286C86.3118 37.1561 85.9701 37.4979 85.728 37.8824C86.2548 37.8967 86.7674 37.9252 87.2942 37.9821C88.8604 38.1673 90.4124 38.3951 91.9786 38.6372C92.4057 38.2527 92.719 37.9679 92.719 37.9679C92.7902 37.7827 92.9183 37.5406 93.0892 37.2131C93.6444 36.1165 94.4418 35.1196 94.9686 34.023C94.9686 33.966 94.9544 33.909 94.9544 33.8521C93.0892 34.379 90.6117 35.319 89.7005 36.7289Z"
        fill="#AE1F23" />
    <path
        d="M94.9401 33.8663C94.9401 33.8094 94.9259 33.7524 94.9259 33.6954C94.9259 33.6954 89.3872 34.6639 86.7104 36.8286C87.7071 36.7716 88.7038 36.7004 89.7005 36.7289C90.6117 35.319 93.0891 34.379 94.9401 33.8663Z"
        fill="#AE1F23" />
    <path
        d="M98.5138 41.5282C98.6705 41.4428 98.8413 41.3573 98.9979 41.2719C98.8271 41.3716 98.6562 41.457 98.4854 41.5425C98.4854 41.5425 98.4996 41.5282 98.5138 41.5282Z"
        fill="#AE1F23" />
    <path
        d="M98.9837 41.2719C98.8271 41.3573 98.6705 41.457 98.4996 41.5282C98.7986 41.4428 98.9837 41.2719 98.9837 41.2719Z"
        fill="#AE1F23" />
    <path
        d="M93.0749 37.2131C92.904 37.5406 92.7759 37.7827 92.7047 37.9679C92.7047 37.9679 92.3914 38.2527 91.9643 38.6372C90.4123 38.3951 88.8461 38.1673 87.2799 37.9821C86.7673 37.9252 86.2405 37.8824 85.7137 37.8824C85.2581 38.5945 85.2439 39.2496 85.5571 39.8478C86.1978 40.9871 88.1057 41.9128 90.4123 42.3543C90.4835 42.3685 90.5547 42.3828 90.6401 42.397C90.6686 42.397 90.6828 42.4112 90.7113 42.4112C92.6904 42.7245 94.9116 42.6818 96.8195 42.1691C96.8337 42.1691 96.848 42.1549 96.8622 42.1549C96.9192 42.1406 96.9761 42.1122 97.0331 42.0979C97.5314 41.9413 98.0155 41.7704 98.4711 41.5425C98.3003 41.5852 98.1009 41.6137 97.8874 41.5567C97.2466 41.4998 96.6629 40.9301 96.1218 39.392C95.6804 38.2527 95.2675 36.5437 94.9685 34.023C94.4275 35.1338 93.6444 36.1307 93.0749 37.2131Z"
        fill="#AE1F23" />
    <path
        d="M97.8874 41.571C97.3606 41.457 96.7056 40.9301 96.1218 39.4062C96.6629 40.9443 97.2466 41.514 97.8874 41.571Z"
        fill="#AE1F23" />
    <path
        d="M90.7256 42.4112C92.6762 42.7388 94.8689 42.7103 96.8195 42.1691C94.9116 42.6818 92.6905 42.7245 90.7256 42.4112Z"
        fill="#AE1F23" />
    <path
        d="M90.6553 42.3972C90.5838 42.3829 90.5123 42.3686 90.4265 42.3543C90.498 42.3686 90.5695 42.3829 90.6553 42.3972Z"
        fill="#AE1F23" />
    <path
        d="M85.728 37.8824C85.6141 38.0533 85.5287 38.2242 85.4575 38.4094C85.2582 38.9078 85.3151 39.392 85.5714 39.8477C85.2582 39.2496 85.2582 38.5945 85.728 37.8824Z"
        fill="#AE1F23" />
    <path
        d="M97.0487 42.0979C96.9913 42.1123 96.9339 42.141 96.8765 42.1553C96.9195 42.141 96.977 42.1123 97.0487 42.0979Z"
        fill="#AE1F23" />
    <path
        d="M99.1119 109.788C91.9786 109.788 85.0446 108.435 78.4808 105.772L81.3997 98.5655C87.0237 100.844 92.9753 102.012 99.0977 102.012C125.068 102.012 146.198 80.8775 146.198 54.901C146.198 28.9245 125.082 7.77587 99.1119 7.77587C73.1415 7.77587 52.0121 28.9103 52.0121 54.8868H44.238C44.2238 24.6236 68.8416 0 99.1119 0C129.368 0 154 24.6236 154 54.901C154 85.1785 129.368 109.788 99.1119 109.788Z"
        fill="#333333" />
    <path
        d="M140.901 28.2979H123.659C122.534 28.2979 121.608 27.3864 121.608 26.2471C121.608 25.1078 122.52 24.2106 123.659 24.2106H140.915C142.04 24.2106 142.966 25.122 142.966 26.2614C142.966 27.4007 142.04 28.2979 140.901 28.2979Z"
        fill="#333333" />
    <path
        d="M144.46 38.2954H133.17C132.045 38.2954 131.119 37.384 131.119 36.2447C131.119 35.1053 132.031 34.1939 133.17 34.1939H144.46C145.585 34.1939 146.511 35.1053 146.511 36.2447C146.511 37.384 145.585 38.2954 144.46 38.2954Z"
        fill="#333333" />
    <path
        d="M148.219 48.293H140.46C139.335 48.293 138.409 47.3815 138.409 46.2422C138.409 45.1171 139.321 44.1914 140.46 44.1914H148.219C149.344 44.1914 150.27 45.1029 150.27 46.2422C150.27 47.3815 149.344 48.293 148.219 48.293Z"
        fill="#333333" />
    <path
        d="M148.575 73.6144H132.671C131.546 73.6144 130.621 72.7029 130.621 71.5636C130.621 70.4385 131.532 69.5128 132.671 69.5128H148.575C149.7 69.5128 150.625 70.4243 150.625 71.5636C150.625 72.7029 149.7 73.6144 148.575 73.6144Z"
        fill="#333333" />
    <path
        d="M144.076 83.0707H121.893C120.768 83.0707 119.843 82.1593 119.843 81.02C119.843 79.8949 120.754 78.9692 121.893 78.9692H144.076C145.201 78.9692 146.126 79.8806 146.126 81.02C146.126 82.1593 145.201 83.0707 144.076 83.0707Z"
        fill="#333333" />
    <defs>
        <linearGradient id="paint0_linear" x1="97.186" y1="54.6713" x2="104.328" y2="54.6713"
            gradientUnits="userSpaceOnUse">
            <stop offset="6.92613e-08" stop-color="#E73559" />
            <stop offset="0.9927" stop-color="#C42B4B" />
        </linearGradient>
        <linearGradient id="paint1_linear" x1="71.6895" y1="59.2896" x2="88.1921" y2="59.2896"
            gradientUnits="userSpaceOnUse">
            <stop offset="6.92613e-08" stop-color="#E73559" />
            <stop offset="0.9927" stop-color="#C42B4B" />
        </linearGradient>
        <linearGradient id="paint2_linear" x1="0.332953" y1="77.0663" x2="85.6918" y2="37.1813"
            gradientUnits="userSpaceOnUse">
            <stop offset="6.92613e-08" stop-color="#E73559" />
            <stop offset="0.9927" stop-color="#C42B4B" />
        </linearGradient>
        <linearGradient id="paint3_linear" x1="8.87237" y1="95.3418" x2="94.2312" y2="55.4574"
            gradientUnits="userSpaceOnUse">
            <stop offset="6.92613e-08" stop-color="#E73559" />
            <stop offset="0.9927" stop-color="#C42B4B" />
        </linearGradient>
        <linearGradient id="paint4_linear" x1="10.513" y1="98.8535" x2="95.872" y2="58.9687"
            gradientUnits="userSpaceOnUse">
            <stop offset="6.92613e-08" stop-color="#E73559" />
            <stop offset="0.9927" stop-color="#C42B4B" />
        </linearGradient>
        <linearGradient id="paint5_linear" x1="11.6178" y1="101.218" x2="96.9767" y2="61.3332"
            gradientUnits="userSpaceOnUse">
            <stop offset="6.92613e-08" stop-color="#E73559" />
            <stop offset="0.9927" stop-color="#C42B4B" />
        </linearGradient>
        <linearGradient id="paint6_linear" x1="12.9494" y1="103.389" x2="98.0094" y2="63.6403"
            gradientUnits="userSpaceOnUse">
            <stop offset="6.92613e-08" stop-color="#E73559" />
            <stop offset="0.9927" stop-color="#C42B4B" />
        </linearGradient>
        <linearGradient id="paint7_linear" x1="71.6893" y1="63.8776" x2="88.1919" y2="63.8776"
            gradientUnits="userSpaceOnUse">
            <stop offset="6.92613e-08" stop-color="#E73559" />
            <stop offset="0.9927" stop-color="#C42B4B" />
        </linearGradient>
        <linearGradient id="paint8_linear" x1="9.45686" y1="96.5935" x2="94.816" y2="56.7087"
            gradientUnits="userSpaceOnUse">
            <stop offset="6.92613e-08" stop-color="#E73559" />
            <stop offset="0.9927" stop-color="#C42B4B" />
        </linearGradient>
        <linearGradient id="paint9_linear" x1="8.21265" y1="93.9306" x2="93.5718" y2="54.0458"
            gradientUnits="userSpaceOnUse">
            <stop offset="6.92613e-08" stop-color="#E73559" />
            <stop offset="0.9927" stop-color="#C42B4B" />
        </linearGradient>
    </defs>
</svg>
