<svg width="193" height="199" viewBox="0 0 193 199" fill="none" xmlns="http://www.w3.org/2000/svg">
<path d="M73.1065 145.723C113.482 145.723 146.213 113.102 146.213 72.8617C146.213 32.6213 113.482 0 73.1065 0C32.7309 0 0 32.6213 0 72.8617C0 113.102 32.7309 145.723 73.1065 145.723Z" fill="#F2F2F2"/>
<path d="M79.3576 101.844C85.701 98.3694 93.5957 99.0668 100.43 101.442C107.265 103.818 113.458 107.71 120.095 110.589C140.377 119.386 164.821 117.967 183.942 106.884C185.75 111.076 183.81 115.871 181.679 119.91C179.548 123.949 177.12 128.327 177.997 132.805C179.119 138.536 185.148 141.972 187.591 147.28C189.91 152.318 188.665 158.235 186.886 163.487C185.107 168.739 182.799 174.03 183.101 179.565C183.403 185.1 187.438 190.953 193 190.957C184.757 192.233 176.353 193.511 168.116 192.203C159.878 190.894 151.684 186.553 147.86 179.165C145.948 175.472 145.211 171.226 143.016 167.694C139.276 161.677 132.1 158.848 125.328 156.715C118.557 154.583 111.311 152.528 106.543 147.283C102.001 142.285 100.562 135.323 98.155 129.021C94.1016 118.47 87.0615 109.32 77.8896 102.681" fill="#E73458"/>
<path d="M86.7074 75.6587C84.4806 74.6262 81.7466 74.2878 79.4809 75.2471C77.2151 76.2065 75.6704 78.6656 76.403 80.8418C76.7352 81.8285 77.4918 82.7989 77.197 83.7954C76.9701 84.5624 76.1787 85.0688 75.4015 85.4289C74.6243 85.7889 73.774 86.0917 73.2119 86.699C72.6498 87.3063 72.5326 88.3517 73.2348 88.8227C73.4661 88.9779 73.7553 89.0515 73.9796 89.215C74.1708 89.3698 74.3087 89.5802 74.3742 89.8169C74.4397 90.0535 74.4294 90.3047 74.3449 90.5353C74.1579 90.9993 73.8489 91.4044 73.4504 91.7082C72.6533 92.3933 71.5998 93.1774 71.8473 94.15C71.9392 94.41 72.0926 94.644 72.2945 94.8322C72.4964 95.0205 72.741 95.1574 73.0073 95.2314C73.5605 95.3904 74.1344 95.4659 74.7101 95.4553L98.2315 96.1938C99.008 96.252 99.7888 96.2085 100.554 96.0645C100.926 95.9969 101.28 95.8536 101.594 95.6435C101.907 95.4334 102.174 95.161 102.378 94.8434C102.828 94.0124 102.532 92.9888 101.976 92.2129C101.42 91.437 100.633 90.8249 99.9822 90.1124C99.3317 89.3999 98.7995 88.5105 98.9141 87.5896C99.0059 86.8525 99.4937 86.2153 99.8439 85.5456C100.194 84.8758 100.397 84.0388 99.9439 83.4226C99.3049 82.5543 97.7705 82.6328 97.0439 81.8237C96.4955 81.2132 96.6014 80.3342 96.5469 79.5468C96.4157 77.6528 95.1001 75.8642 93.2272 75.0336C92.2749 74.6261 91.2389 74.4502 90.2049 74.5204C89.171 74.5906 88.1685 74.9048 87.2804 75.4372L86.7074 75.6587Z" fill="#2F2E41"/>
<path d="M71.844 194.537L68.1602 193.434L70.6762 178.747L76.1134 180.375L71.844 194.537Z" fill="#A0616A"/>
<path d="M71.7106 198.378L59.832 194.821L59.8772 194.671C60.0596 194.066 60.3598 193.502 60.7606 193.013C61.1615 192.523 61.6552 192.117 62.2135 191.818C62.7718 191.519 63.3838 191.332 64.0146 191.268C64.6453 191.204 65.2825 191.265 65.8897 191.447L65.8899 191.447L73.1449 193.62L71.7106 198.378Z" fill="#2F2E41"/>
<path d="M106.608 194.661L102.761 194.661L100.931 179.873L106.608 179.874L106.608 194.661Z" fill="#A0616A"/>
<path d="M107.589 198.378L95.1855 198.377V198.221C95.1855 197.589 95.3104 196.963 95.553 196.379C95.7956 195.796 96.1512 195.265 96.5995 194.818C97.0478 194.372 97.58 194.017 98.1657 193.775C98.7515 193.534 99.3793 193.409 100.013 193.409H100.014L107.589 193.41L107.589 198.378Z" fill="#2F2E41"/>
<path d="M101.268 183.477C100.932 183.477 100.608 183.357 100.352 183.14C100.097 182.923 99.9274 182.623 99.8743 182.292L94.1628 146.782C94.1249 146.547 94.0111 146.331 93.8387 146.166C93.6662 146.001 93.4444 145.897 93.2071 145.869C92.9697 145.841 92.7297 145.891 92.5235 146.011C92.3172 146.132 92.156 146.316 92.0643 146.536L77.2668 182.04C77.129 182.367 76.8723 182.631 76.5479 182.779C76.2234 182.926 75.8552 182.946 75.5165 182.835L70.1718 181.059C69.839 180.95 69.5591 180.721 69.387 180.416C69.2149 180.112 69.1628 179.755 69.2411 179.414L81.3677 125.934C81.427 125.676 81.5576 125.441 81.7446 125.253C81.9316 125.066 82.1675 124.934 82.4256 124.873L98.6887 121.111C98.8885 121.066 99.0958 121.064 99.2965 121.105C99.4972 121.147 99.6866 121.231 99.8519 121.351C110.561 129.106 109.656 154.443 107.66 181.954C107.635 182.299 107.484 182.622 107.236 182.862C106.987 183.103 106.659 183.244 106.313 183.259L101.33 183.476C101.309 183.476 101.288 183.477 101.268 183.477Z" fill="#2F2E41"/>
<path d="M87.5779 96.0122C91.8339 96.0122 95.2842 92.5735 95.2842 88.3317C95.2842 84.0899 91.8339 80.6512 87.5779 80.6512C83.3218 80.6512 79.8716 84.0899 79.8716 88.3317C79.8716 92.5735 83.3218 96.0122 87.5779 96.0122Z" fill="#A0616A"/>
<path d="M87.911 128.139C86.0612 128.127 84.237 127.707 82.5696 126.908L82.5123 126.882L82.4896 126.823L75.5776 108.975L75.4461 105.873C75.4021 104.836 75.5764 103.802 75.958 102.836C76.3395 101.87 76.9197 100.994 77.6613 100.266C78.4029 99.5369 79.2894 98.971 80.2638 98.6043C81.2381 98.2377 82.2787 98.0785 83.3185 98.137L90.6567 98.5489C92.5522 98.6563 94.3355 99.4796 95.6433 100.851C96.9512 102.223 97.6854 104.04 97.6965 105.932C97.887 106.297 99.2406 109.151 96.5879 111.831C96.4888 112.442 95.5609 118.788 99.0625 122.278L99.1609 122.376L99.0749 122.485C99.0191 122.556 94.5221 128.138 87.911 128.139Z" fill="#3F3D56"/>
<path d="M98.2151 129.485C98.6488 129.329 99.0427 129.079 99.3691 128.754C99.6955 128.429 99.9464 128.037 100.104 127.605C100.262 127.173 100.323 126.712 100.283 126.254C100.242 125.796 100.102 125.353 99.8709 124.955L107.2 116.498L101.422 115.748L95.3482 123.894C94.7032 124.325 94.2391 124.977 94.0441 125.726C93.849 126.475 93.9365 127.27 94.2899 127.959C94.6432 128.648 95.238 129.184 95.9615 129.465C96.6849 129.747 97.4868 129.754 98.2151 129.485Z" fill="#A0616A"/>
<path d="M102.798 122.958C102.522 122.958 102.253 122.878 102.023 122.727L98.3983 120.357C98.0935 120.159 97.8776 119.85 97.7958 119.497C97.714 119.143 97.7726 118.772 97.9593 118.461L100.584 114.067C100.726 113.829 100.815 113.564 100.847 113.289C100.879 113.014 100.853 112.736 100.769 112.472C100.685 112.208 100.547 111.965 100.362 111.759C100.177 111.552 99.9508 111.387 99.6975 111.274L92.1585 107.905C91.2313 107.485 90.4745 106.765 90.0121 105.86C89.5497 104.956 89.4091 103.922 89.6133 102.928C89.7542 102.258 90.0484 101.629 90.4731 101.09C90.8977 100.551 91.4413 100.118 92.0616 99.8224C92.6819 99.5273 93.3621 99.3788 94.0494 99.3884C94.7367 99.3981 95.4124 99.5656 96.0241 99.878L107.461 105.719C108.233 106.113 108.91 106.669 109.446 107.348C109.982 108.027 110.365 108.813 110.568 109.653C110.77 110.494 110.789 111.367 110.621 112.215C110.453 113.063 110.104 113.865 109.597 114.565L103.942 122.374C103.812 122.555 103.64 122.702 103.441 122.804C103.242 122.905 103.021 122.958 102.798 122.958Z" fill="#3F3D56"/>
<path d="M79.6944 87.2397C82.128 87.045 84.1486 84.6219 83.8955 82.2017C83.867 83.1992 84.2074 84.1725 84.8519 84.9362C85.4965 85.6999 86.4002 86.2009 87.3912 86.3438C88.5075 86.4663 89.7314 86.1297 90.7031 86.691C91.7793 87.3127 92.1236 88.8224 93.2448 89.3593C94.3281 89.8781 95.704 89.1706 96.2392 88.0981C96.7744 87.0256 96.643 85.737 96.2883 84.5926C95.7825 82.9604 94.8615 81.4865 93.6148 80.3142C92.3682 79.142 90.8383 78.3112 89.1741 77.9027C87.5098 77.4943 85.7678 77.522 84.1175 77.9833C82.4672 78.4446 80.9648 79.3237 79.7564 80.5351C78.7331 81.5609 77.9206 82.8684 77.7888 84.309C77.657 85.7495 78.3275 87.3127 79.6256 87.9598L79.6944 87.2397Z" fill="#2F2E41"/>
<path d="M61.7658 65.9646C62.1718 66.1827 62.5249 66.4869 62.8002 66.8558C63.0755 67.2246 63.2663 67.6491 63.3592 68.0994C63.4521 68.5497 63.4447 69.0149 63.3377 69.462C63.2307 69.9092 63.0267 70.3275 62.7399 70.6876L68.7512 80.1205L62.9256 80.021L58.1103 71.0786C57.5353 70.5584 57.1718 69.846 57.0886 69.0765C57.0054 68.307 57.2083 67.5337 57.6589 66.9034C58.1095 66.273 58.7764 65.8292 59.5334 65.6562C60.2903 65.4832 61.0846 65.5929 61.7658 65.9646V65.9646Z" fill="#A0616A"/>
<path d="M66.6111 72.6815L74.3528 90.9131L82.4693 104.63C82.8119 105.209 83.018 105.858 83.0721 106.528C83.1261 107.198 83.0267 107.872 82.7813 108.498C82.5359 109.124 82.151 109.686 81.6556 110.143C81.1602 110.599 80.5672 110.937 79.9215 111.131C78.8975 111.434 77.7985 111.362 76.8231 110.928C75.8477 110.494 75.0603 109.726 74.603 108.764L58.9597 75.4504C58.8748 75.2695 58.8294 75.0725 58.8268 74.8727C58.8241 74.6729 58.8642 74.4748 58.9443 74.2916C59.0244 74.1085 59.1428 73.9444 59.2915 73.8104C59.4402 73.6763 59.6158 73.5754 59.8067 73.5143L64.879 71.8904C64.9751 71.8596 65.0742 71.8389 65.1747 71.8287C65.4742 71.7985 65.7755 71.8651 66.0342 72.0187C66.2928 72.1723 66.4951 72.4047 66.6111 72.6815Z" fill="#3F3D56"/>
<path d="M138.894 198.638H50.5051C50.4741 198.638 50.4444 198.584 50.4224 198.489C50.4005 198.393 50.3882 198.264 50.3882 198.129C50.3882 197.994 50.4005 197.864 50.4224 197.768C50.4444 197.673 50.4741 197.619 50.5051 197.619H138.894C138.925 197.619 138.955 197.673 138.977 197.768C138.999 197.864 139.011 197.994 139.011 198.129C139.011 198.264 138.999 198.393 138.977 198.489C138.955 198.584 138.925 198.638 138.894 198.638Z" fill="#CCCCCC"/>
<path d="M89.2491 33.8393V59.4816C89.2491 59.5645 89.216 59.644 89.1572 59.7027C89.0984 59.7613 89.0186 59.7943 88.9353 59.7943C88.8521 59.7943 88.7723 59.7613 88.7135 59.7027C88.6546 59.644 88.6216 59.5645 88.6216 59.4816V33.8393C88.6216 33.7563 88.6546 33.6768 88.7135 33.6181C88.7723 33.5595 88.8521 33.5266 88.9353 33.5266C89.0186 33.5266 89.0984 33.5595 89.1572 33.6181C89.216 33.6768 89.2491 33.7563 89.2491 33.8393Z" fill="#CCCCCC"/>
<path d="M116.492 55.593L107.617 64.4378C107.558 64.4962 107.479 64.529 107.395 64.5289C107.312 64.5288 107.233 64.4958 107.174 64.4373C107.115 64.3787 107.082 64.2993 107.082 64.2165C107.082 64.1337 107.115 64.0542 107.173 63.9955L116.048 55.1507C116.077 55.1216 116.112 55.0985 116.15 55.0827C116.188 55.0669 116.229 55.0587 116.27 55.0587C116.311 55.0586 116.352 55.0667 116.39 55.0824C116.428 55.0981 116.463 55.1212 116.492 55.1502C116.521 55.1793 116.544 55.2139 116.56 55.2519C116.576 55.2899 116.584 55.3306 116.584 55.3717C116.584 55.4128 116.576 55.4535 116.56 55.4915C116.544 55.5295 116.521 55.564 116.492 55.593Z" fill="#CCCCCC"/>
<path d="M61.3795 55.593L70.254 64.4378C70.3129 64.4964 70.3927 64.5294 70.4759 64.5294C70.5591 64.5294 70.6389 64.4964 70.6977 64.4378C70.7566 64.3791 70.7896 64.2996 70.7896 64.2167C70.7896 64.1337 70.7566 64.0542 70.6977 63.9955L61.8232 55.1507C61.7941 55.1216 61.7595 55.0985 61.7214 55.0827C61.6833 55.0669 61.6425 55.0587 61.6012 55.0587C61.56 55.0586 61.5191 55.0667 61.481 55.0824C61.4428 55.0981 61.4082 55.1212 61.379 55.1502C61.3498 55.1793 61.3267 55.2139 61.3109 55.2519C61.2952 55.2899 61.2871 55.3306 61.2871 55.3717C61.2872 55.4128 61.2953 55.4535 61.3112 55.4915C61.3271 55.5295 61.3503 55.564 61.3795 55.593Z" fill="#CCCCCC"/>
</svg>
