<svg width="32" height="32" viewBox="0 0 32 32" fill="none" xmlns="http://www.w3.org/2000/svg">
<path d="M25.3333 5.33333H6.66667C5.19391 5.33333 4 6.52724 4 7.99999V26.6667C4 28.1394 5.19391 29.3333 6.66667 29.3333H25.3333C26.8061 29.3333 28 28.1394 28 26.6667V7.99999C28 6.52724 26.8061 5.33333 25.3333 5.33333Z" stroke="#B1B4BA" stroke-width="2" stroke-linecap="round" stroke-linejoin="round"/>
<path d="M21.3335 2.66667V8" stroke="#B1B4BA" stroke-width="2" stroke-linecap="round" stroke-linejoin="round"/>
<path d="M10.6665 2.66667V8" stroke="#B1B4BA" stroke-width="2" stroke-linecap="round" stroke-linejoin="round"/>
<path d="M4 13.3333H28" stroke="#B1B4BA" stroke-width="2" stroke-linecap="round" stroke-linejoin="round"/>
</svg>
